---
http_interactions:
- request:
    method: get
    uri: https://api.bestbuy.com/v1/stores(area(80202,25))?apiKey=qy8vdpfcgsxtfw657mnbu7nc&format=json&show=storeType,longName,city,phone
    body:
      encoding: US-ASCII
      string: ''
    headers:
      User-Agent:
      - Faraday v0.11.0
      Accept-Encoding:
      - gzip;q=1.0,deflate;q=0.6,identity;q=0.3
      Accept:
      - "*/*"
  response:
    status:
      code: 200
      message: OK
    headers:
      Access-Control-Allow-Headers:
      - origin, x-requested-with, accept
      Access-Control-Allow-Methods:
      - GET
      Access-Control-Allow-Origin:
      - "*"
      Access-Control-Max-Age:
      - '3628800'
      Content-Type:
      - application/json; charset=UTF-8
      Date:
      - Thu, 23 Feb 2017 18:41:41 GMT
      Server:
      - Best Buy Public APIs
      X-Cache-Hit:
      - 'true'
      Content-Length:
      - '1817'
      Connection:
      - keep-alive
    body:
      encoding: UTF-8
      string: |-
        {
          "from": 1,
          "to": 10,
          "currentPage": 1,
          "total": 16,
          "totalPages": 2,
          "queryTime": "0.011",
          "totalTime": "0.030",
          "partial": false,
          "canonicalUrl": "/v1/stores(area(\"80202\",25))?show=storeType,longName,city,phone&format=json&apiKey=qy8vdpfcgsxtfw657mnbu7nc",
          "stores": [
            {
              "storeType": "Mobile SAS",
              "longName": "BEST BUY MOBILE - CHERRY CREEK SHOPPING CENTER",
              "city": "DENVER",
              "phone": "303-270-9189"
            },
            {
              "storeType": "Big Box",
              "longName": "BEST BUY - BELMAR",
              "city": "LAKEWOOD",
              "phone": "303-742-8039"
            },
            {
              "storeType": "Big Box",
              "longName": "BEST BUY - COLORADO BLVD",
              "city": "DENVER",
              "phone": "303-758-5805"
            },
            {
              "storeType": "Big Box",
              "longName": "BEST BUY - DENVER WEST",
              "city": "LAKEWOOD",
              "phone": "303-273-5617"
            },
            {
              "storeType": "Big Box",
              "longName": "BEST BUY - WESTMINSTER",
              "city": "WESTMINSTER",
              "phone": "303-426-4434"
            },
            {
              "storeType": "Big Box",
              "longName": "BEST BUY - NORTHGLENN",
              "city": "DENVER",
              "phone": "303-252-8677"
            },
            {
              "storeType": "Mobile SAS",
              "longName": "BEST BUY MOBILE - TOWN CENTER AT AURORA",
              "city": "AURORA",
              "phone": "303-326-0848"
            },
            {
              "storeType": "Big Box",
              "longName": "BEST BUY - AURORA",
              "city": "AURORA",
              "phone": "303-338-5797"
            },
            {
              "storeType": "Big Box",
              "longName": "BEST BUY - LITTLETON",
              "city": "LAKEWOOD",
              "phone": "303-932-7830"
            },
            {
              "storeType": "Big Box",
              "longName": "BEST BUY - SOUTHGLENN",
              "city": "CENTENNIAL",
              "phone": "303-797-3246"
            }
          ],
          "warnings": "Distances are in terms of miles (default)"
        }
    http_version: 
  recorded_at: Thu, 23 Feb 2017 18:41:35 GMT
recorded_with: VCR 3.0.3
